{
  "kind": "collectionType",
  "collectionName": "navbars",
  "info": {
    "singularName": "navbar",
    "pluralName": "navbars",
    "displayName": "navbar",
    "description": ""
  },
  "options": {
    "draftAndPublish": true
  },
  "pluginOptions": {},
  "attributes": {
    "aboutUs": {
      "type": "string"
    },
    "otherSec": {
      "type": "string"
    },
    "mediaCentre": {
      "type": "string"
    },
    "enterHalo": {
      "type": "string"
    },
    "abouts": {
      "type": "relation",
      "relation": "oneToMany",
      "target": "api::about.about"
    },
    "media_centres": {
      "type": "relation",
      "relation": "oneToMany",
      "target": "api::media-centre.media-centre"
    },
    "cyber_menu_lefts": {
      "type": "relation",
      "relation": "oneToMany",
      "target": "api::cyber-menu-left.cyber-menu-left"
    },
    "outsourcing_menus": {
      "type": "relation",
      "relation": "oneToMany",
      "target": "api::outsourcing-menu.outsourcing-menu"
    },
    "physical_security_menus": {
      "type": "relation",
      "relation": "oneToMany",
      "target": "api::physical-security-menu.physical-security-menu"
    },
    "security_education_menus": {
      "type": "relation",
      "relation": "oneToMany",
      "target": "api::security-education-menu.security-education-menu"
    },
    "security_risk_menus": {
      "type": "relation",
      "relation": "oneToMany",
      "target": "api::security-risk-menu.security-risk-menu"
    },
    "security_technologies_menus": {
      "type": "relation",
      "relation": "oneToMany",
      "target": "api::security-technologies-menu.security-technologies-menu"
    },
    "defense_industries_menus": {
      "type": "relation",
      "relation": "oneToMany",
      "target": "api::defense-industries-menu.defense-industries-menu"
    }
  }
}
