{
  "kind": "collectionType",
  "collectionName": "banners",
  "info": {
    "singularName": "banner",
    "pluralName": "banners",
    "displayName": "home-page-banner",
    "description": ""
  },
  "options": {
    "draftAndPublish": true
  },
  "pluginOptions": {},
  "attributes": {
    "bannerHeader": {
      "type": "string"
    },
    "bannerText": {
      "type": "text"
    },
    "pages": {
      "type": "relation",
      "relation": "manyToMany",
      "target": "api::page.page",
      "mappedBy": "banners"
    },
    "active": {
      "type": "boolean"
    },
    "bannerImage": {
      "type": "media",
      "multiple": false,
      "required": false,
      "allowedTypes": [
        "images",
        "files",
        "videos",
        "audios"
      ]
    },
    "bannerUrl": {
      "type": "string"
    }
  }
}
